{
	"info": {
		"_postman_id": "fdf54f4c-e9b9-4c60-b13e-2b92af9f566b",
		"name": "session28-29",
		"schema": "https://schema.getpostman.com/json/collection/v2.1.0/collection.json"
	},
	"item": [
		{
			"name": "GET REQUEST",
			"request": {
				"method": "GET",
				"header": [],
				"url": {
					"raw": "localhost:4000",
					"host": [
						"localhost"
					],
					"port": "4000"
				}
			},
			"response": []
		},
		{
			"name": "GREETING",
			"request": {
				"method": "GET",
				"header": [],
				"url": {
					"raw": "localhost:4000/greeting",
					"host": [
						"localhost"
					],
					"port": "4000",
					"path": [
						"greeting"
					]
				}
			},
			"response": []
		},
		{
			"name": "GET ALL USERS",
			"request": {
				"method": "GET",
				"header": [],
				"url": {
					"raw": "localhost:4000/users",
					"host": [
						"localhost"
					],
					"port": "4000",
					"path": [
						"users"
					]
				}
			},
			"response": []
		},
		{
			"name": "ADD A NEW USER",
			"request": {
				"method": "POST",
				"header": [],
				"body": {
					"mode": "raw",
					"raw": "{\r\n    \"username\" : \"MMadrigal\",\r\n    \"email\" : \"mirabel@gmail.com\",\r\n    \"password\" : \"noGift\"\r\n}",
					"options": {
						"raw": {
							"language": "json"
						}
					}
				},
				"url": {
					"raw": "localhost:4000/users",
					"host": [
						"localhost"
					],
					"port": "4000",
					"path": [
						"users"
					]
				}
			},
			"response": []
		},
		{
			"name": "DELETE A USER",
			"request": {
				"method": "DELETE",
				"header": [],
				"url": {
					"raw": "localhost:4000/users",
					"host": [
						"localhost"
					],
					"port": "4000",
					"path": [
						"users"
					]
				}
			},
			"response": []
		},
		{
			"name": "UPDATE PASSWORD",
			"request": {
				"method": "PUT",
				"header": [],
				"body": {
					"mode": "raw",
					"raw": "{\r\n    \"password\" : \"updatedPassword\"\r\n}",
					"options": {
						"raw": {
							"language": "json"
						}
					}
				},
				"url": {
					"raw": "localhost:4000/users/0",
					"host": [
						"localhost"
					],
					"port": "4000",
					"path": [
						"users",
						"0"
					]
				}
			},
			"response": []
		},
		{
			"name": "GET ALL ITEMS",
			"request": {
				"method": "GET",
				"header": [],
				"url": {
					"raw": "localhost:4000/items",
					"host": [
						"localhost"
					],
					"port": "4000",
					"path": [
						"items"
					]
				}
			},
			"response": []
		},
		{
			"name": "ADD NEW ITEM",
			"request": {
				"method": "POST",
				"header": [],
				"body": {
					"mode": "raw",
					"raw": "{\r\n    \"name\" : \"Sampaguita\",\r\n    \"price\" : 50,\r\n    \"isActive\" : true\r\n}",
					"options": {
						"raw": {
							"language": "json"
						}
					}
				},
				"url": {
					"raw": "localhost:4000/items/new",
					"host": [
						"localhost"
					],
					"port": "4000",
					"path": [
						"items",
						"new"
					]
				}
			},
			"response": []
		},
		{
			"name": "UPDATE PRICE",
			"request": {
				"method": "PUT",
				"header": [],
				"body": {
					"mode": "raw",
					"raw": "{\r\n    \"price\" : 500\r\n}",
					"options": {
						"raw": {
							"language": "json"
						}
					}
				},
				"url": {
					"raw": "localhost:4000/items/1",
					"host": [
						"localhost"
					],
					"port": "4000",
					"path": [
						"items",
						"1"
					]
				}
			},
			"response": []
		},
		{
			"name": "GET USERS AND ITEMS (activity)",
			"request": {
				"method": "GET",
				"header": [],
				"url": {
					"raw": "localhost:4000/users/items",
					"host": [
						"localhost"
					],
					"port": "4000",
					"path": [
						"users",
						"items"
					]
				}
			},
			"response": []
		},
		{
			"name": "GET SINGLE ITEM (activity)",
			"request": {
				"method": "GET",
				"header": [],
				"url": {
					"raw": "localhost:4000/items/getSingleItems/1",
					"host": [
						"localhost"
					],
					"port": "4000",
					"path": [
						"items",
						"getSingleItems",
						"1"
					]
				}
			},
			"response": []
		},
		{
			"name": "ARCHIVE ITEM (activity)",
			"request": {
				"method": "GET",
				"header": [],
				"url": {
					"raw": "localhost:4000/items/archive/1",
					"host": [
						"localhost"
					],
					"port": "4000",
					"path": [
						"items",
						"archive",
						"1"
					]
				}
			},
			"response": []
		},
		{
			"name": "ACTIVATE ITEMS (activity)",
			"request": {
				"method": "GET",
				"header": [],
				"url": {
					"raw": "localhost:4000/items/activate/1",
					"host": [
						"localhost"
					],
					"port": "4000",
					"path": [
						"items",
						"activate",
						"1"
					]
				}
			},
			"response": []
		},
		{
			"name": "AUTOMATIC REASSIGNING (activity)",
			"protocolProfileBehavior": {
				"disableBodyPruning": true
			},
			"request": {
				"method": "GET",
				"header": [],
				"body": {
					"mode": "raw",
					"raw": "",
					"options": {
						"raw": {
							"language": "json"
						}
					}
				},
				"url": {
					"raw": "localhost:4000/items/auto/1",
					"host": [
						"localhost"
					],
					"port": "4000",
					"path": [
						"items",
						"auto",
						"1"
					]
				}
			},
			"response": []
		}
	]
}